<?xml version="1.0" standalone="no"?>
<!DOCTYPE svg PUBLIC "-//W3C//DTD SVG 20010904//EN"
 "http://www.w3.org/TR/2001/REC-SVG-20010904/DTD/svg10.dtd">
<svg version="1.0" xmlns="http://www.w3.org/2000/svg"
 width="512.000000pt" height="512.000000pt" viewBox="0 0 512.000000 512.000000"
 preserveAspectRatio="xMidYMid meet">

<g transform="translate(0.000000,512.000000) scale(0.100000,-0.100000)"
fill="#000000" stroke="none">
<path d="M2255 4884 c-582 -79 -1116 -371 -1487 -814 -185 -220 -346 -508
-431 -768 -84 -256 -117 -466 -117 -742 0 -376 72 -693 233 -1024 231 -475
602 -847 1080 -1082 326 -160 651 -234 1027 -234 382 0 707 75 1040 241 471
235 824 588 1059 1059 166 333 241 658 241 1040 0 376 -72 691 -234 1025 -194
399 -500 738 -881 975 -191 119 -493 241 -715 289 -239 51 -587 66 -815 35z
m893 -1268 l2 -216 -150 0 c-242 0 -250 -8 -250 -240 l0 -150 201 0 202 0 -6
-57 c-3 -32 -14 -133 -23 -225 l-17 -168 -179 0 -178 0 -2 -637 -3 -638 -262
-3 -263 -2 0 640 0 640 -125 0 -125 0 0 225 0 225 125 0 125 0 0 188 c0 197 9
262 50 357 65 151 204 250 385 275 33 4 157 7 275 5 l215 -4 3 -215z"/>
</g>
</svg>
